{
  "asin": "82406248-7811-4a2b-940e-c8b459a34c24", 
  "sample_xray": "", 
  "goodreads_url": "https://www.goodreads.com/book/show/85441.The_Complete_Stories_Vol_2", 
  "aliases": {
    "Andrew Martin": [
      "NDR", 
      "The Bicentennial Man", 
      "Mr. Martin", 
      "martin", 
      "andrew"
    ]
  }
}